{
    "key": "group_56cb2e45bc85f",
    "title": "Social Media",
    "fields": [
        {
            "key": "field_56cb2e55ced7f",
            "label": "Social Media Accounts",
            "name": "social_media_accounts",
            "type": "repeater",
            "instructions": "",
            "required": 0,
            "conditional_logic": 0,
            "wrapper": {
                "width": "",
                "class": "",
                "id": ""
            },
            "collapsed": "",
            "min": "",
            "max": "",
            "layout": "table",
            "button_label": "Add Account",
            "sub_fields": [
                {
                    "key": "field_56cb2e77ced80",
                    "label": "Social Media Account",
                    "name": "social_media_account",
                    "type": "select",
                    "instructions": "",
                    "required": 1,
                    "conditional_logic": 0,
                    "wrapper": {
                        "width": "",
                        "class": "",
                        "id": ""
                    },
                    "choices": {
                        "facebook": "Facebook",
                        "pinterest": "Pinterest",
                        "twitter": "Twitter",
                        "youtube": "YouTube",
                        "instagram": "Instagram"
                    },
                    "default_value": [

                    ],
                    "allow_null": 0,
                    "multiple": 0,
                    "ui": 0,
                    "ajax": 0,
                    "placeholder": "",
                    "disabled": 0,
                    "readonly": 0
                },
                {
                    "key": "field_56cb2edbced81",
                    "label": "Social Media Account URL",
                    "name": "social_media_account_url",
                    "type": "url",
                    "instructions": "",
                    "required": 1,
                    "conditional_logic": 0,
                    "wrapper": {
                        "width": "",
                        "class": "",
                        "id": ""
                    },
                    "default_value": "",
                    "placeholder": ""
                }
            ]
        }
    ],
    "location": [
        [
            {
                "param": "options_page",
                "operator": "==",
                "value": "acf-options"
            }
        ]
    ],
    "menu_order": 55,
    "position": "normal",
    "style": "default",
    "label_placement": "top",
    "instruction_placement": "label",
    "hide_on_screen": "",
    "active": 1,
    "description": "",
    "modified": 1459951555
}